{
    "images": [
        {
            "Image": 2,
            "ImageShape": [
                1080,
                1920,
                3
            ],
            "NumberDetections": 1,
            "Classes": [
                {
                    "ClassName": "traffic light",
                    "Class": 10,
                    "Box": [
                        0.25348201394081116,
                        0.3248797059059143,
                        0.34302493929862976,
                        0.3538345694541931
                    ],
                    "Score": 0.5478009581565857
                }
            ]
        },
        {
            "Image": 27,
            "ImageShape": [
                1080,
                1920,
                3
            ],
            "NumberDetections": 1,
            "Classes": [
                {
                    "ClassName": "traffic light",
                    "Class": 10,
                    "Box": [
                        0.3206928074359894,
                        0.8675915598869324,
                        0.3634229004383087,
                        0.8846386075019836
                    ],
                    "Score": 0.8970637321472168
                }
            ]
        },
        {
            "Image": 30,
            "ImageShape": [
                1080,
                1920,
                3
            ],
            "NumberDetections": 1,
            "Classes": [
                {
                    "ClassName": "traffic light",
                    "Class": 10,
                    "Box": [
                        0.3889807164669037,
                        0.23025625944137573,
                        0.4278823435306549,
                        0.24643903970718384
                    ],
                    "Score": 0.5389934182167053
                }
            ]
        },
        {
            "Image": 37,
            "ImageShape": [
                1080,
                1920,
                3
            ],
            "NumberDetections": 1,
            "Classes": [
                {
                    "ClassName": "traffic light",
                    "Class": 10,
                    "Box": [
                        0.10552314668893814,
                        0.3650856912136078,
                        0.2908795177936554,
                        0.41235336661338806
                    ],
                    "Score": 0.7680517435073853
                }
            ]
        },
        {
            "Image": 55,
            "ImageShape": [
                1080,
                1920,
                3
            ],
            "NumberDetections": 1,
            "Classes": [
                {
                    "ClassName": "traffic light",
                    "Class": 10,
                    "Box": [
                        0.20237748324871063,
                        0.3231695294380188,
                        0.332112193107605,
                        0.35531550645828247
                    ],
                    "Score": 0.5054107904434204
                }
            ]
        },
        {
            "Image": 62,
            "ImageShape": [
                1080,
                1920,
                3
            ],
            "NumberDetections": 1,
            "Classes": [
                {
                    "ClassName": "traffic light",
                    "Class": 10,
                    "Box": [
                        0.23400001227855682,
                        0.10489283502101898,
                        0.35627642273902893,
                        0.15031073987483978
                    ],
                    "Score": 0.8699121475219727
                }
            ]
        },
        {
            "Image": 66,
            "ImageShape": [
                1080,
                1920,
                3
            ],
            "NumberDetections": 1,
            "Classes": [
                {
                    "ClassName": "traffic light",
                    "Class": 10,
                    "Box": [
                        0.24365347623825073,
                        0.27377191185951233,
                        0.36369597911834717,
                        0.32258525490760803
                    ],
                    "Score": 0.616862416267395
                }
            ]
        },
        {
            "Image": 69,
            "ImageShape": [
                1080,
                1920,
                3
            ],
            "NumberDetections": 1,
            "Classes": [
                {
                    "ClassName": "traffic light",
                    "Class": 10,
                    "Box": [
                        0.21636313199996948,
                        0.5343682169914246,
                        0.3297421932220459,
                        0.5703156590461731
                    ],
                    "Score": 0.7725144624710083
                }
            ]
        },
        {
            "Image": 76,
            "ImageShape": [
                1080,
                1920,
                3
            ],
            "NumberDetections": 1,
            "Classes": [
                {
                    "ClassName": "traffic light",
                    "Class": 10,
                    "Box": [
                        0.2701680660247803,
                        0.12128034234046936,
                        0.38324224948883057,
                        0.16361379623413086
                    ],
                    "Score": 0.7230376601219177
                }
            ]
        },
        {
            "Image": 81,
            "ImageShape": [
                1080,
                1920,
                3
            ],
            "NumberDetections": 1,
            "Classes": [
                {
                    "ClassName": "traffic light",
                    "Class": 10,
                    "Box": [
                        0.23677194118499756,
                        0.7948583960533142,
                        0.3458665609359741,
                        0.841762125492096
                    ],
                    "Score": 0.5724161267280579
                }
            ]
        },
        {
            "Image": 84,
            "ImageShape": [
                1080,
                1920,
                3
            ],
            "NumberDetections": 3,
            "Classes": [
                {
                    "ClassName": "traffic light",
                    "Class": 10,
                    "Box": [
                        0.026630986481904984,
                        0.4048689603805542,
                        0.1503722071647644,
                        0.4601658582687378
                    ],
                    "Score": 0.9204025268554688
                },
                {
                    "ClassName": "traffic light",
                    "Class": 10,
                    "Box": [
                        0.3286656439304352,
                        0.04546225070953369,
                        0.4388318955898285,
                        0.08591963350772858
                    ],
                    "Score": 0.539901614189148
                }
            ]
        },
        {
            "Image": 91,
            "ImageShape": [
                1080,
                1920,
                3
            ],
            "NumberDetections": 1,
            "Classes": [
                {
                    "ClassName": "traffic light",
                    "Class": 10,
                    "Box": [
                        0.054756104946136475,
                        0.12077000737190247,
                        0.1875908076763153,
                        0.17230254411697388
                    ],
                    "Score": 0.7902144193649292
                }
            ]
        },
        {
            "Image": 95,
            "ImageShape": [
                1080,
                1920,
                3
            ],
            "NumberDetections": 2,
            "Classes": [
                {
                    "ClassName": "traffic light",
                    "Class": 10,
                    "Box": [
                        0.335549533367157,
                        0.18174032866954803,
                        0.45113039016723633,
                        0.2176283746957779
                    ],
                    "Score": 0.679361879825592
                },
                {
                    "ClassName": "traffic light",
                    "Class": 10,
                    "Box": [
                        0.037553541362285614,
                        0.5122503042221069,
                        0.16476070880889893,
                        0.5664036273956299
                    ],
                    "Score": 0.663279116153717
                }
            ]
        },
        {
            "Image": 102,
            "ImageShape": [
                1080,
                1920,
                3
            ],
            "NumberDetections": 2,
            "Classes": [
                {
                    "ClassName": "traffic light",
                    "Class": 10,
                    "Box": [
                        0.1032583937048912,
                        0.21178333461284637,
                        0.2213490903377533,
                        0.2548258602619171
                    ],
                    "Score": 0.806754469871521
                },
                {
                    "ClassName": "traffic light",
                    "Class": 10,
                    "Box": [
                        0.08953340351581573,
                        0.1718519926071167,
                        0.2102479785680771,
                        0.22433221340179443
                    ],
                    "Score": 0.6358117461204529
                }
            ]
        },
        {
            "Image": 106,
            "ImageShape": [
                1080,
                1920,
                3
            ],
            "NumberDetections": 4,
            "Classes": [
                {
                    "ClassName": "traffic light",
                    "Class": 10,
                    "Box": [
                        0.06855356693267822,
                        0.589393675327301,
                        0.18907800316810608,
                        0.6259329915046692
                    ],
                    "Score": 0.8647000789642334
                },
                {
                    "ClassName": "traffic light",
                    "Class": 10,
                    "Box": [
                        0.3515143096446991,
                        0.2914150655269623,
                        0.4382760226726532,
                        0.3130011260509491
                    ],
                    "Score": 0.6828215718269348
                }
            ]
        },
        {
            "Image": 110,
            "ImageShape": [
                1080,
                1920,
                3
            ],
            "NumberDetections": 1,
            "Classes": [
                {
                    "ClassName": "traffic light",
                    "Class": 10,
                    "Box": [
                        0.30434557795524597,
                        0.6679797172546387,
                        0.4108714759349823,
                        0.6917839050292969
                    ],
                    "Score": 0.7811286449432373
                }
            ]
        },
        {
            "Image": 113,
            "ImageShape": [
                1080,
                1920,
                3
            ],
            "NumberDetections": 2,
            "Classes": [
                {
                    "ClassName": "traffic light",
                    "Class": 10,
                    "Box": [
                        0.13549695909023285,
                        0.2285345047712326,
                        0.24611805379390717,
                        0.2748938798904419
                    ],
                    "Score": 0.8104751110076904
                },
                {
                    "ClassName": "traffic light",
                    "Class": 10,
                    "Box": [
                        0.1447151005268097,
                        0.24840328097343445,
                        0.25548410415649414,
                        0.2901332676410675
                    ],
                    "Score": 0.6551551222801208
                }
            ]
        },
        {
            "Image": 117,
            "ImageShape": [
                1080,
                1920,
                3
            ],
            "NumberDetections": 3,
            "Classes": [
                {
                    "ClassName": "traffic light",
                    "Class": 10,
                    "Box": [
                        0.09245714545249939,
                        0.6164419054985046,
                        0.20716643333435059,
                        0.6677144169807434
                    ],
                    "Score": 0.7971431612968445
                },
                {
                    "ClassName": "traffic light",
                    "Class": 10,
                    "Box": [
                        0.35191720724105835,
                        0.3358536660671234,
                        0.4608268737792969,
                        0.35850265622138977
                    ],
                    "Score": 0.5807552933692932
                }
            ]
        },
        {
            "Image": 124,
            "ImageShape": [
                1080,
                1920,
                3
            ],
            "NumberDetections": 3,
            "Classes": [
                {
                    "ClassName": "traffic light",
                    "Class": 10,
                    "Box": [
                        0.1652897596359253,
                        0.2850084900856018,
                        0.26978084444999695,
                        0.32237643003463745
                    ],
                    "Score": 0.879625678062439
                },
                {
                    "ClassName": "traffic light",
                    "Class": 10,
                    "Box": [
                        0.29132184386253357,
                        0.6434980630874634,
                        0.39730098843574524,
                        0.671856164932251
                    ],
                    "Score": 0.5423534512519836
                }
            ]
        },
        {
            "Image": 128,
            "ImageShape": [
                1080,
                1920,
                3
            ],
            "NumberDetections": 2,
            "Classes": [
                {
                    "ClassName": "traffic light",
                    "Class": 10,
                    "Box": [
                        0.11640139669179916,
                        0.6571169495582581,
                        0.21554714441299438,
                        0.6950792670249939
                    ],
                    "Score": 0.8955130577087402
                },
                {
                    "ClassName": "traffic light",
                    "Class": 10,
                    "Box": [
                        0.36391666531562805,
                        0.3622157573699951,
                        0.4329969584941864,
                        0.37914782762527466
                    ],
                    "Score": 0.558108389377594
                }
            ]
        },
        {
            "Image": 135,
            "ImageShape": [
                1080,
                1920,
                3
            ],
            "NumberDetections": 3,
            "Classes": [
                {
                    "ClassName": "traffic light",
                    "Class": 10,
                    "Box": [
                        0.18853315711021423,
                        0.2935880720615387,
                        0.27677232027053833,
                        0.32669785618782043
                    ],
                    "Score": 0.8344283103942871
                },
                {
                    "ClassName": "traffic light",
                    "Class": 10,
                    "Box": [
                        0.2033405303955078,
                        0.3110424876213074,
                        0.2868232727050781,
                        0.34732741117477417
                    ],
                    "Score": 0.7464462518692017
                }
            ]
        },
        {
            "Image": 139,
            "ImageShape": [
                1080,
                1920,
                3
            ],
            "NumberDetections": 2,
            "Classes": [
                {
                    "ClassName": "traffic light",
                    "Class": 10,
                    "Box": [
                        0.1435878574848175,
                        0.6783080697059631,
                        0.23990723490715027,
                        0.719549834728241
                    ],
                    "Score": 0.8705884218215942
                },
                {
                    "ClassName": "traffic light",
                    "Class": 10,
                    "Box": [
                        0.1389460265636444,
                        0.6670127511024475,
                        0.23175948858261108,
                        0.6999455094337463
                    ],
                    "Score": 0.6407337188720703
                }
            ]
        },
        {
            "Image": 146,
            "ImageShape": [
                1080,
                1920,
                3
            ],
            "NumberDetections": 1,
            "Classes": [
                {
                    "ClassName": "traffic light",
                    "Class": 10,
                    "Box": [
                        0.2145194411277771,
                        0.3245295286178589,
                        0.2949879765510559,
                        0.3547639846801758
                    ],
                    "Score": 0.8883292078971863
                }
            ]
        },
        {
            "Image": 148,
            "ImageShape": [
                1080,
                1920,
                3
            ],
            "NumberDetections": 1,
            "Classes": [
                {
                    "ClassName": "traffic light",
                    "Class": 10,
                    "Box": [
                        0.30180150270462036,
                        0.7782352566719055,
                        0.3597567677497864,
                        0.7993918061256409
                    ],
                    "Score": 0.5571073889732361
                }
            ]
        },
        {
            "Image": 150,
            "ImageShape": [
                1080,
                1920,
                3
            ],
            "NumberDetections": 3,
            "Classes": [
                {
                    "ClassName": "traffic light",
                    "Class": 10,
                    "Box": [
                        0.15799181163311005,
                        0.6989316344261169,
                        0.24517254531383514,
                        0.7336230874061584
                    ],
                    "Score": 0.8563864231109619
                },
                {
                    "ClassName": "traffic light",
                    "Class": 10,
                    "Box": [
                        0.3757883310317993,
                        0.4201027750968933,
                        0.434739351272583,
                        0.43425923585891724
                    ],
                    "Score": 0.5278517603874207
                }
            ]
        },
        {
            "Image": 157,
            "ImageShape": [
                1080,
                1920,
                3
            ],
            "NumberDetections": 2,
            "Classes": [
                {
                    "ClassName": "traffic light",
                    "Class": 10,
                    "Box": [
                        0.2271253913640976,
                        0.35197708010673523,
                        0.3063109219074249,
                        0.37764033675193787
                    ],
                    "Score": 0.5040221214294434
                }
            ]
        },
        {
            "Image": 161,
            "ImageShape": [
                1080,
                1920,
                3
            ],
            "NumberDetections": 2,
            "Classes": [
                {
                    "ClassName": "traffic light",
                    "Class": 10,
                    "Box": [
                        0.16822773218154907,
                        0.7193266749382019,
                        0.258442223072052,
                        0.748341977596283
                    ],
                    "Score": 0.5207270383834839
                },
                {
                    "ClassName": "traffic light",
                    "Class": 10,
                    "Box": [
                        0.1663140505552292,
                        0.7108741402626038,
                        0.24569229781627655,
                        0.7425639033317566
                    ],
                    "Score": 0.5003215670585632
                }
            ]
        },
        {
            "Image": 168,
            "ImageShape": [
                1080,
                1920,
                3
            ],
            "NumberDetections": 2,
            "Classes": [
                {
                    "ClassName": "traffic light",
                    "Class": 10,
                    "Box": [
                        0.23818975687026978,
                        0.35474085807800293,
                        0.31024861335754395,
                        0.3809547424316406
                    ],
                    "Score": 0.8314269185066223
                },
                {
                    "ClassName": "traffic light",
                    "Class": 10,
                    "Box": [
                        0.24515798687934875,
                        0.35839730501174927,
                        0.31711849570274353,
                        0.39254093170166016
                    ],
                    "Score": 0.5697551965713501
                }
            ]
        },
        {
            "Image": 172,
            "ImageShape": [
                1080,
                1920,
                3
            ],
            "NumberDetections": 4,
            "Classes": [
                {
                    "ClassName": "traffic light",
                    "Class": 10,
                    "Box": [
                        0.18414628505706787,
                        0.718079149723053,
                        0.26262199878692627,
                        0.7518451809883118
                    ],
                    "Score": 0.70793217420578
                },
                {
                    "ClassName": "traffic light",
                    "Class": 10,
                    "Box": [
                        0.17908622324466705,
                        0.7245070934295654,
                        0.2683909237384796,
                        0.7624362707138062
                    ],
                    "Score": 0.6670457124710083
                }
            ]
        },
        {
            "Image": 176,
            "ImageShape": [
                1080,
                1920,
                3
            ],
            "NumberDetections": 1,
            "Classes": [
                {
                    "ClassName": "traffic light",
                    "Class": 10,
                    "Box": [
                        0.31639012694358826,
                        0.8347660303115845,
                        0.3817389905452728,
                        0.8542618751525879
                    ],
                    "Score": 0.5280501842498779
                }
            ]
        },
        {
            "Image": 179,
            "ImageShape": [
                1080,
                1920,
                3
            ],
            "NumberDetections": 2,
            "Classes": [
                {
                    "ClassName": "traffic light",
                    "Class": 10,
                    "Box": [
                        0.24987468123435974,
                        0.35475394129753113,
                        0.3159467279911041,
                        0.38275185227394104
                    ],
                    "Score": 0.8904896974563599
                },
                {
                    "ClassName": "traffic light",
                    "Class": 10,
                    "Box": [
                        0.25426018238067627,
                        0.35822686553001404,
                        0.3263569474220276,
                        0.3918796479701996
                    ],
                    "Score": 0.642447829246521
                }
            ]
        },
        {
            "Image": 183,
            "ImageShape": [
                1080,
                1920,
                3
            ],
            "NumberDetections": 2,
            "Classes": [
                {
                    "ClassName": "traffic light",
                    "Class": 10,
                    "Box": [
                        0.19798147678375244,
                        0.7165996432304382,
                        0.26969143748283386,
                        0.7471669316291809
                    ],
                    "Score": 0.842211127281189
                },
                {
                    "ClassName": "traffic light",
                    "Class": 10,
                    "Box": [
                        0.19967401027679443,
                        0.7253797650337219,
                        0.2822418808937073,
                        0.762485682964325
                    ],
                    "Score": 0.7240520715713501
                }
            ]
        },
        {
            "Image": 190,
            "ImageShape": [
                1080,
                1920,
                3
            ],
            "NumberDetections": 2,
            "Classes": [
                {
                    "ClassName": "traffic light",
                    "Class": 10,
                    "Box": [
                        0.265529990196228,
                        0.3541179895401001,
                        0.32343244552612305,
                        0.37731510400772095
                    ],
                    "Score": 0.9336994290351868
                }
            ]
        },
        {
            "Image": 194,
            "ImageShape": [
                1080,
                1920,
                3
            ],
            "NumberDetections": 1,
            "Classes": [
                {
                    "ClassName": "traffic light",
                    "Class": 10,
                    "Box": [
                        0.21592403948307037,
                        0.7134358286857605,
                        0.2931002974510193,
                        0.7462353110313416
                    ],
                    "Score": 0.8042518496513367
                }
            ]
        }
    ]
}